%YAML 1.1
%TAG !u! tag:unity3d.com,2011:
--- !u!1001 &2283947416452375504
PrefabInstance:
  m_ObjectHideFlags: 0
  serializedVersion: 2
  m_Modification:
    m_TransformParent: {fileID: 0}
    m_Modifications:
    - target: {fileID: 6756545806781295537, guid: 568e5a1c1fc305a478721db24b62d0b4,
        type: 3}
      propertyPath: m_Name
      value: Game Elements
      objectReference: {fileID: 0}
    - target: {fileID: 6756545806781295550, guid: 568e5a1c1fc305a478721db24b62d0b4,
        type: 3}
      propertyPath: m_LocalPosition.x
      value: 217.67892
      objectReference: {fileID: 0}
    - target: {fileID: 6756545806781295550, guid: 568e5a1c1fc305a478721db24b62d0b4,
        type: 3}
      propertyPath: m_LocalPosition.y
      value: 353.76932
      objectReference: {fileID: 0}
    - target: {fileID: 6756545806781295550, guid: 568e5a1c1fc305a478721db24b62d0b4,
        type: 3}
      propertyPath: m_LocalPosition.z
      value: 1.3658917
      objectReference: {fileID: 0}
    - target: {fileID: 6756545806781295550, guid: 568e5a1c1fc305a478721db24b62d0b4,
        type: 3}
      propertyPath: m_LocalRotation.x
      value: 0
      objectReference: {fileID: 0}
    - target: {fileID: 6756545806781295550, guid: 568e5a1c1fc305a478721db24b62d0b4,
        type: 3}
      propertyPath: m_LocalRotation.y
      value: 0
      objectReference: {fileID: 0}
    - target: {fileID: 6756545806781295550, guid: 568e5a1c1fc305a478721db24b62d0b4,
        type: 3}
      propertyPath: m_LocalRotation.z
      value: 0
      objectReference: {fileID: 0}
    - target: {fileID: 6756545806781295550, guid: 568e5a1c1fc305a478721db24b62d0b4,
        type: 3}
      propertyPath: m_LocalRotation.w
      value: 1
      objectReference: {fileID: 0}
    - target: {fileID: 6756545806781295550, guid: 568e5a1c1fc305a478721db24b62d0b4,
        type: 3}
      propertyPath: m_RootOrder
      value: 0
      objectReference: {fileID: 0}
    - target: {fileID: 6756545806781295550, guid: 568e5a1c1fc305a478721db24b62d0b4,
        type: 3}
      propertyPath: m_LocalEulerAnglesHint.x
      value: 0
      objectReference: {fileID: 0}
    - target: {fileID: 6756545806781295550, guid: 568e5a1c1fc305a478721db24b62d0b4,
        type: 3}
      propertyPath: m_LocalEulerAnglesHint.y
      value: 0
      objectReference: {fileID: 0}
    - target: {fileID: 6756545806781295550, guid: 568e5a1c1fc305a478721db24b62d0b4,
        type: 3}
      propertyPath: m_LocalEulerAnglesHint.z
      value: 0
      objectReference: {fileID: 0}
    - target: {fileID: 6756545807112365119, guid: 568e5a1c1fc305a478721db24b62d0b4,
        type: 3}
      propertyPath: m_IsActive
      value: 0
      objectReference: {fileID: 0}
    - target: {fileID: 412906371581911212, guid: 568e5a1c1fc305a478721db24b62d0b4,
        type: 3}
      propertyPath: m_IsActive
      value: 0
      objectReference: {fileID: 0}
    - target: {fileID: 8550107471388345203, guid: 568e5a1c1fc305a478721db24b62d0b4,
        type: 3}
      propertyPath: m_IsActive
      value: 0
      objectReference: {fileID: 0}
    - target: {fileID: 6756545806647915728, guid: 568e5a1c1fc305a478721db24b62d0b4,
        type: 3}
      propertyPath: m_IsActive
      value: 0
      objectReference: {fileID: 0}
    m_RemovedComponents: []
  m_SourcePrefab: {fileID: 100100000, guid: 568e5a1c1fc305a478721db24b62d0b4, type: 3}
